Section 4 : R Markdown
…
4. SOLLUTIONS

Challenge 1:

library(dplyr)
datax %>%
  select(iso_code:new_deaths_per_million) %>%
  filter(continent == "Europe" & date == "2020-08-17" ) %>%
  mutate(total=sum(total_deaths, na.rm=TRUE)) %>%
  group_by(location) %>%
  summarise(death_ratio=sum(total_deaths, na.rm=TRUE)/total) %>%
  arrange(desc(death_ratio))

## # A tibble: 50 x 2
##    location       death_ratio
##    <chr>                <dbl>
##  1 United Kingdom      0.237 
##  2 Italy               0.203 
##  3 France              0.174 
##  4 Russia              0.0898
##  5 Belgium             0.0569
##  6 Germany             0.0529
##  7 Netherlands         0.0353
##  8 Sweden              0.0331
##  9 Romania             0.0171
## 10 Ukraine             0.0120
## # ... with 40 more rows
…
